#FIG 3.2  Produced by xfig version 3.2.7a
Portrait
Center
Metric
A4
100.00
Single
-2
1200 2
2 2 0 0 0 21 51 -1 32 0.000 0 0 -1 0 0 5
	 540 1980 1260 1980 1260 2160 540 2160 540 1980
2 2 0 0 0 21 51 -1 32 0.000 0 0 -1 0 0 5
	 1350 1980 2070 1980 2070 2160 1350 2160 1350 1980
2 2 0 0 0 21 51 -1 32 0.000 0 0 -1 0 0 5
	 2160 1980 2880 1980 2880 2160 2160 2160 2160 1980
2 2 0 0 0 31 51 -1 32 0.000 0 0 -1 0 0 5
	 3060 1980 3960 1980 3960 2160 3060 2160 3060 1980
2 2 0 0 0 9 51 -1 32 0.000 0 0 -1 0 0 5
	 540 630 1080 630 1080 810 540 810 540 630
2 2 0 0 0 9 51 -1 32 0.000 0 0 -1 0 0 5
	 1260 630 1800 630 1800 810 1260 810 1260 630
2 2 0 0 0 9 51 -1 32 0.000 0 0 -1 0 0 5
	 1980 630 2520 630 2520 810 1980 810 1980 630
2 2 0 0 0 9 51 -1 32 0.000 0 0 -1 0 0 5
	 2700 630 3240 630 3240 810 2700 810 2700 630
2 2 0 0 0 9 51 -1 32 0.000 0 0 -1 0 0 5
	 3420 630 3960 630 3960 810 3420 810 3420 630
2 2 0 0 0 12 52 -1 34 0.000 0 0 -1 0 0 5
	 1350 1080 3960 1080 3960 1710 1350 1710 1350 1080
2 2 0 0 0 12 52 -1 34 0.000 0 0 -1 0 0 5
	 540 1080 1260 1080 1260 1350 540 1350 540 1080
2 2 0 0 0 12 52 -1 34 0.000 0 0 -1 0 0 5
	 540 1440 1260 1440 1260 1710 540 1710 540 1440
2 2 0 0 12 12 51 -1 30 0.000 0 0 -1 0 0 5
	 1440 1260 1980 1260 1980 1440 1440 1440 1440 1260
2 2 0 0 0 12 51 -1 30 0.000 0 0 -1 0 0 5
	 2070 1260 2610 1260 2610 1440 2070 1440 2070 1260
2 2 0 0 0 12 51 -1 30 0.000 0 0 -1 0 0 5
	 2700 1260 3240 1260 3240 1440 2700 1440 2700 1260
2 2 0 0 0 12 51 -1 30 0.000 0 0 -1 0 0 5
	 3330 1260 3870 1260 3870 1440 3330 1440 3330 1260
2 2 0 0 0 12 51 -1 30 0.000 0 0 -1 0 0 5
	 3015 1485 3555 1485 3555 1665 3015 1665 3015 1485
2 2 0 0 0 12 51 -1 30 0.000 0 0 -1 0 0 5
	 2385 1485 2925 1485 2925 1665 2385 1665 2385 1485
2 2 0 0 0 12 51 -1 30 0.000 0 0 -1 0 0 5
	 1755 1485 2295 1485 2295 1665 1755 1665 1755 1485
2 2 0 0 0 21 51 -1 32 0.000 0 0 -1 0 0 5
	 540 2205 1260 2205 1260 2385 540 2385 540 2205
2 2 0 0 0 21 51 -1 32 0.000 0 0 -1 0 0 5
	 1350 2205 2070 2205 2070 2385 1350 2385 1350 2205
2 2 0 0 0 21 51 -1 32 0.000 0 0 -1 0 0 5
	 2160 2205 2880 2205 2880 2385 2160 2385 2160 2205
2 2 0 0 0 31 51 -1 32 0.000 0 0 -1 0 0 5
	 3060 2205 3960 2205 3960 2385 3060 2385 3060 2205
2 2 0 0 0 15 51 -1 32 0.000 0 0 -1 0 0 5
	 540 2655 1080 2655 1080 2835 540 2835 540 2655
2 2 0 0 0 15 51 -1 32 0.000 0 0 -1 0 0 5
	 1260 2655 1800 2655 1800 2835 1260 2835 1260 2655
2 2 0 0 0 15 51 -1 32 0.000 0 0 -1 0 0 5
	 1980 2655 2520 2655 2520 2835 1980 2835 1980 2655
2 2 0 0 0 15 51 -1 32 0.000 0 0 -1 0 0 5
	 2700 2655 3240 2655 3240 2835 2700 2835 2700 2655
2 2 0 0 0 15 51 -1 32 0.000 0 0 -1 0 0 5
	 3420 2655 3960 2655 3960 2835 3420 2835 3420 2655
2 2 0 0 0 4 51 -1 30 0.000 0 0 -1 0 0 5
	 630 3285 1620 3285 1620 3465 630 3465 630 3285
2 2 0 0 0 4 51 -1 30 0.000 0 0 -1 0 0 5
	 2880 3285 3870 3285 3870 3465 2880 3465 2880 3285
2 2 0 0 0 4 51 -1 30 0.000 0 0 -1 0 0 5
	 1755 3285 2745 3285 2745 3465 1755 3465 1755 3285
2 2 0 0 0 4 51 -1 30 0.000 0 0 -1 0 0 5
	 630 3510 1620 3510 1620 3690 630 3690 630 3510
2 2 0 0 0 4 51 -1 30 0.000 0 0 -1 0 0 5
	 2880 3510 3870 3510 3870 3690 2880 3690 2880 3510
2 2 0 0 0 4 51 -1 30 0.000 0 0 -1 0 0 5
	 1755 3510 2745 3510 2745 3690 1755 3690 1755 3510
2 2 0 0 0 4 51 -1 30 0.000 0 0 -1 0 0 5
	 630 3735 1620 3735 1620 3915 630 3915 630 3735
2 2 0 0 0 4 51 -1 30 0.000 0 0 -1 0 0 5
	 2880 3735 3870 3735 3870 3915 2880 3915 2880 3735
2 2 0 0 0 4 51 -1 30 0.000 0 0 -1 0 0 5
	 1755 3735 2745 3735 2745 3915 1755 3915 1755 3735
2 2 0 0 0 4 52 -1 34 0.000 0 0 -1 0 0 5
	 540 3105 3960 3105 3960 3960 540 3960 540 3105
2 2 0 0 0 0 55 -1 20 0.000 0 0 -1 0 0 5
	 495 495 4095 495 4095 4320 495 4320 495 495
2 2 0 1 0 4 53 -1 38 0.000 0 0 -1 0 0 5
	 450 2925 4050 2925 4050 4275 450 4275 450 2925
2 2 0 1 0 15 53 -1 36 0.000 0 0 -1 0 0 5
	 450 2475 4050 2475 4050 2925 450 2925 450 2475
2 2 0 1 0 31 53 -1 36 0.000 0 0 -1 0 0 5
	 2970 1800 4050 1800 4050 2475 2970 2475 2970 1800
2 2 0 1 0 21 53 -1 36 0.000 0 0 -1 0 0 5
	 450 1800 2970 1800 2970 2475 450 2475 450 1800
2 2 0 1 0 12 53 -1 38 0.000 0 0 -1 0 0 5
	 450 900 4050 900 4050 1800 450 1800 450 900
2 2 0 1 0 9 53 -1 36 0.000 0 0 -1 0 0 5
	 450 450 4050 450 4050 900 450 900 450 450
2 2 0 0 0 4 52 -1 34 0.000 0 0 -1 0 0 5
	 540 4005 3960 4005 3960 4185 540 4185 540 4005
2 1 1 1 0 7 50 -1 -1 4.000 0 0 -1 0 0 2
	 4050 2925 5580 2925
3 0 0 1 0 7 50 -1 -1 0.000 0 0 0 6
	 4230 450 4275 450 4275 495 4275 630 4275 675 4320 675
	 0.000 1.000 1.000 1.000 1.000 0.000
3 0 0 1 0 7 50 -1 -1 0.000 0 0 0 6
	 4230 900 4275 900 4275 855 4275 720 4275 675 4320 675
	 0.000 1.000 1.000 1.000 1.000 0.000
3 0 0 1 0 7 50 -1 -1 0.000 0 0 0 6
	 4230 945 4275 945 4275 990 4275 1890 4275 1935 4320 1935
	 0.000 1.000 1.000 1.000 1.000 0.000
3 0 0 1 0 7 50 -1 -1 0.000 0 0 0 6
	 4230 2880 4275 2880 4275 2835 4275 1980 4275 1935 4320 1935
	 0.000 1.000 1.000 1.000 1.000 0.000
3 0 0 1 0 7 50 -1 -1 0.000 0 0 0 6
	 4230 4275 4275 4275 4275 4230 4275 3645 4275 3600 4320 3600
	 0.000 1.000 1.000 1.000 1.000 0.000
3 0 0 1 0 7 50 -1 -1 0.000 0 0 0 6
	 4230 2970 4275 2970 4275 3015 4275 3555 4275 3600 4320 3600
	 0.000 1.000 1.000 1.000 1.000 0.000
4 1 0 50 -1 20 6 0.0000 4 90 255 900 2115 Webkit\001
4 1 0 50 -1 20 6 0.0000 4 105 540 1710 2115 OpenMAX AL\001
4 1 0 50 -1 20 6 0.0000 4 90 150 2520 2115 Libc\001
4 1 0 50 -1 20 6 0.0000 4 105 900 3510 2115 Android Runtime (ART)\001
4 1 0 50 -1 16 8 0.0000 4 135 840 2250 585 System Apps\001
4 1 0 50 -1 20 6 0.0000 4 90 210 810 765 Dialer\001
4 1 0 50 -1 20 6 0.0000 4 90 210 1530 765 Email\001
4 1 0 50 -1 20 6 0.0000 4 90 330 2250 765 Calendar\001
4 1 0 50 -1 20 6 0.0000 4 90 300 2970 765 Camera\001
4 1 0 50 -1 20 6 0.0000 4 15 90 3690 765 ...\001
4 1 0 50 -1 16 8 0.0000 4 105 1320 2250 1035 Java API Framework\001
4 1 0 50 -1 20 6 0.0000 4 105 675 900 1260 Content providers\001
4 1 0 50 -1 20 6 0.0000 4 120 510 900 1620 View System\001
4 1 0 50 -1 20 6 0.0000 4 90 315 2340 1395 Location\001
4 1 0 50 -1 20 6 0.0000 4 120 330 2970 1395 Package\001
4 1 0 50 -1 20 6 0.0000 4 90 420 3600 1395 Notification\001
4 1 0 50 -1 20 6 0.0000 4 120 285 1710 1395 Activity\001
4 1 0 50 -1 20 6 0.0000 4 90 360 2025 1620 Resource\001
4 1 0 50 -1 20 6 0.0000 4 90 285 3285 1620 Window\001
4 1 0 50 -1 20 6 0.0000 4 120 390 2655 1620 Telephony\001
4 1 0 50 -1 16 7 0.0000 4 120 510 2610 1215 Managers\001
4 1 0 50 -1 16 8 0.0000 4 105 1425 1710 1935 Native C/C++ Libraries\001
4 1 0 50 -1 16 8 0.0000 4 105 1035 3510 1935 Android Runtime\001
4 1 0 50 -1 20 6 0.0000 4 90 690 900 2340 Media Framework\001
4 1 0 50 -1 20 6 0.0000 4 105 480 1710 2340 OpenGL ES\001
4 1 0 50 -1 20 6 0.0000 4 15 90 2520 2340 ...\001
4 1 0 50 -1 20 6 0.0000 4 90 525 3510 2340 Core Libraries\001
4 1 0 50 -1 16 8 0.0000 4 135 2145 2250 2610 Hardware Abstraction Layer (HAL)\001
4 1 0 50 -1 20 6 0.0000 4 90 210 810 2790 Audio\001
4 1 0 50 -1 20 6 0.0000 4 90 360 1530 2790 Bluetooth\001
4 1 0 50 -1 20 6 0.0000 4 90 300 2250 2790 Camera\001
4 1 0 50 -1 20 6 0.0000 4 90 315 2970 2790 Sensors\001
4 1 0 50 -1 20 6 0.0000 4 15 90 3690 2790 ...\001
4 1 0 50 -1 16 8 0.0000 4 105 765 2250 3060 Linux Kernel\001
4 1 0 50 -1 16 7 0.0000 4 90 390 2250 3240 Drivers\001
4 1 0 50 -1 20 6 0.0000 4 90 210 1125 3420 Audio\001
4 1 0 50 -1 20 6 0.0000 4 105 450 2250 3420 Binder (PC)\001
4 1 0 50 -1 20 6 0.0000 4 120 270 3375 3420 Display\001
4 1 0 50 -1 20 6 0.0000 4 120 285 1125 3645 Keypad\001
4 1 0 50 -1 20 6 0.0000 4 90 360 2250 3645 Bluetooth\001
4 1 0 50 -1 20 6 0.0000 4 90 300 3375 3645 Camera\001
4 1 0 50 -1 20 6 0.0000 4 120 615 1125 3870 Shared Memory\001
4 1 0 50 -1 20 6 0.0000 4 90 180 2250 3870 USB\001
4 1 0 50 -1 20 6 0.0000 4 90 165 3375 3870 WiFi\001
4 1 0 50 -1 20 6 0.0000 4 120 765 2250 4140 Power Management\001
4 0 0 50 -1 16 8 0.0000 4 135 750 4365 720 Applications\001
4 0 0 50 -1 16 8 0.0000 4 135 375 4365 1980 Bibliothèques\001
4 0 0 50 -1 16 8 0.0000 4 135 405 4365 3645 Noyau\001
4 2 0 50 -1 17 6 0.0000 4 90 780 5535 2790 mode utilisateur\001
4 2 0 50 -1 17 6 0.0000 4 105 870 5535 3105 mode superviseur\001
