#FIG 3.2  Produced by xfig version 3.2.5c
Landscape
Center
Metric
A4      
100.00
Single
-2
1200 2
0 32 #c6b797
0 33 #eff8ff
0 34 #dccba6
0 35 #404040
0 36 #808080
0 37 #c0c0c0
0 38 #e0e0e0
0 39 #8e8f8e
0 40 #aaaaaa
0 41 #555555
0 42 #c7c3c7
0 43 #565151
0 44 #8e8e8e
0 45 #d7d7d7
0 46 #85807d
0 47 #d2d2d2
0 48 #3a3a3a
0 49 #4573aa
0 50 #aeaeae
0 51 #7b79a5
0 52 #444444
0 53 #73758c
0 54 #f7f7f7
0 55 #414541
0 56 #635dce
0 57 #bebebe
0 58 #515151
0 59 #e7e3e7
0 60 #000049
0 61 #797979
0 62 #303430
0 63 #414141
0 64 #c7b696
6 495 765 1485 855
3 0 0 1 0 7 50 -1 -1 0.000 0 0 0 5
	 495 855 495 810 945 810 990 810 990 765
	 0.000 1.000 1.000 1.000 0.000
3 0 0 1 0 7 50 -1 -1 0.000 0 0 0 5
	 1485 855 1485 810 1035 810 990 810 990 765
	 0.000 1.000 1.000 1.000 0.000
-6
6 1575 765 2565 855
3 0 0 1 0 7 50 -1 -1 0.000 0 0 0 5
	 1575 855 1575 810 2025 810 2070 810 2070 765
	 0.000 1.000 1.000 1.000 0.000
3 0 0 1 0 7 50 -1 -1 0.000 0 0 0 5
	 2565 855 2565 810 2115 810 2070 810 2070 765
	 0.000 1.000 1.000 1.000 0.000
-6
6 2655 765 4095 855
3 0 0 1 0 7 50 -1 -1 0.000 0 0 0 5
	 2655 855 2655 810 3310 810 3375 810 3375 765
	 0.000 1.000 1.000 1.000 0.000
3 0 0 1 0 7 50 -1 -1 0.000 0 0 0 5
	 4095 855 4095 810 3440 810 3375 810 3375 765
	 0.000 1.000 1.000 1.000 0.000
-6
2 1 0 1 0 7 50 -1 -1 0.000 0 0 -1 0 0 2
	 630 900 630 1260
2 1 0 1 0 7 50 -1 -1 0.000 0 0 -1 0 0 2
	 810 900 810 1260
2 1 0 1 0 7 50 -1 -1 0.000 0 0 -1 0 0 2
	 990 900 990 1260
2 1 0 1 0 7 50 -1 -1 0.000 0 0 -1 0 0 2
	 1170 900 1170 1260
2 1 0 1 0 7 50 -1 -1 0.000 0 0 -1 0 0 2
	 1350 900 1350 1260
2 1 0 1 0 7 50 -1 -1 0.000 0 0 -1 0 0 2
	 1710 900 1710 1260
2 1 0 1 0 7 50 -1 -1 0.000 0 0 -1 0 0 2
	 1890 900 1890 1260
2 1 0 1 0 7 50 -1 -1 0.000 0 0 -1 0 0 2
	 2070 900 2070 1260
2 1 0 1 0 7 50 -1 -1 0.000 0 0 -1 0 0 2
	 2250 900 2250 1260
2 1 0 1 0 7 50 -1 -1 0.000 0 0 -1 0 0 2
	 2790 900 2790 1260
2 1 0 1 0 7 50 -1 -1 0.000 0 0 -1 0 0 2
	 2970 900 2970 1260
2 1 0 1 0 7 50 -1 -1 0.000 0 0 -1 0 0 2
	 3150 900 3150 1260
2 1 0 1 0 7 50 -1 -1 0.000 0 0 -1 0 0 2
	 3330 900 3330 1260
2 1 0 1 0 7 50 -1 -1 0.000 0 0 -1 0 0 2
	 3510 900 3510 1260
2 1 0 1 0 7 50 -1 -1 0.000 0 0 -1 0 0 2
	 3690 900 3690 1260
2 1 0 1 0 7 50 -1 20 0.000 0 0 -1 0 0 2
	 2430 900 2430 1260
2 2 0 1 0 13 51 -1 30 0.000 0 0 -1 0 0 5
	 1530 900 2610 900 2610 1260 1530 1260 1530 900
2 2 0 1 0 4 51 -1 30 0.000 0 0 -1 0 0 5
	 450 900 1530 900 1530 1260 450 1260 450 900
2 3 0 1 0 4 51 -1 30 0.000 0 0 -1 0 0 8
	 4140 900 2610 900 2610 1260 4050 1260 3870 1170 4050 1125
	 3915 1035 4140 900
2 1 0 1 0 7 50 -1 -1 0.000 0 0 -1 1 0 2
	1 1 1.00 60.00 120.00
	 1620 1710 1620 1440
2 1 0 1 0 7 50 -1 -1 0.000 0 0 -1 1 0 2
	1 1 1.00 60.00 120.00
	 2700 1710 2700 1440
2 1 1 1 0 7 50 -1 -1 4.000 0 0 -1 1 0 2
	1 1 1.00 60.00 120.00
	 1620 1440 2160 1440
2 1 1 1 0 7 50 -1 -1 4.000 0 0 -1 1 0 2
	1 1 1.00 60.00 120.00
	 2700 1440 3240 1440
3 0 0 1 1 7 50 -1 -1 0.000 0 1 0 3
	1 1 1.00 60.00 120.00
	 2475 2070 2385 1800 2610 1530
	 0.000 1.000 0.000
3 0 0 1 1 7 50 -1 -1 0.000 0 1 0 4
	1 1 1.00 60.00 120.00
	 3330 2205 3600 1980 3285 1620 2790 1530
	 0.000 1.000 1.000 0.000
3 0 0 1 1 7 50 -1 -1 0.000 0 1 0 3
	1 1 1.00 60.00 120.00
	 1035 2250 1080 1665 1530 1530
	 0.000 1.000 0.000
3 0 0 1 1 7 50 -1 -1 0.000 0 1 0 5
	1 1 1.00 60.00 120.00
	 1620 2475 1845 2250 1890 1980 1845 1710 1755 1575
	 0.000 1.000 1.000 1.000 0.000
3 0 0 1 1 7 50 -1 -1 0.000 0 1 0 4
	1 1 1.00 60.00 120.00
	 2340 2565 2160 1665 1935 1575 1755 1530
	 0.000 1.000 1.000 0.000
4 1 0 50 -1 16 7 0.0000 4 120 795 990 540 cases produites\001
4 1 0 50 -1 16 7 0.0000 4 120 795 2070 540 cases produites\001
4 1 0 50 -1 16 7 0.0000 4 90 1020 2070 690 et non consomm\351es\001
4 1 0 50 -1 16 7 0.0000 4 60 540 3375 540 cases non \001
4 1 0 50 -1 16 7 0.0000 4 120 840 3375 690 encore produites\001
4 1 0 50 -1 16 7 0.0000 4 120 1050 990 690 et d\351j\340 consomm\351es\001
4 1 0 50 -1 16 6 0.0000 4 75 60 540 1395 0\001
4 1 0 50 -1 16 6 0.0000 4 75 60 720 1395 1\001
4 1 0 50 -1 16 6 0.0000 4 75 60 900 1395 2\001
4 1 0 50 -1 16 6 0.0000 4 75 60 1080 1395 3\001
4 1 0 50 -1 16 6 0.0000 4 75 60 1260 1395 4\001
4 1 0 50 -1 16 6 0.0000 4 75 60 1440 1395 5\001
4 1 0 50 -1 16 6 0.0000 4 75 60 1620 1395 6\001
4 1 0 50 -1 16 6 0.0000 4 75 60 1800 1395 7\001
4 1 0 50 -1 16 6 0.0000 4 75 60 1980 1395 8\001
4 1 0 50 -1 16 6 0.0000 4 75 60 2160 1395 9\001
4 1 0 50 -1 16 6 0.0000 4 75 120 2340 1395 10\001
4 1 0 50 -1 16 6 0.0000 4 75 120 2520 1395 11\001
4 1 0 50 -1 16 6 0.0000 4 75 120 2700 1395 12\001
4 1 0 50 -1 16 6 0.0000 4 75 120 2880 1395 13\001
4 1 0 50 -1 16 6 0.0000 4 75 120 3060 1395 14\001
4 1 0 50 -1 16 6 0.0000 4 75 120 3240 1395 15\001
4 1 0 50 -1 16 6 0.0000 4 75 120 3420 1395 16\001
4 1 0 50 -1 16 6 0.0000 4 75 120 3600 1395 17\001
4 1 0 50 -1 16 6 0.0000 4 15 150 3870 1350 . . .\001
4 2 0 50 -1 16 7 0.0000 4 120 1065 1710 1845 indice de la premi\350re\001
4 2 0 50 -1 16 7 0.0000 4 90 975 1710 1995 case \340 consommer\001
4 0 0 50 -1 16 7 0.0000 4 120 1095 2610 1845 indice de la prochaine\001
4 0 0 50 -1 16 7 0.0000 4 120 780 2610 1995 case \340 produire\001
4 1 1 50 -1 18 8 0.0000 4 90 1005 2385 2700 consommateur\001
4 1 1 50 -1 18 8 0.0000 4 135 765 3375 2340 producteur\001
4 1 1 50 -1 18 8 0.0000 4 90 1005 1035 2385 consommateur\001
4 1 1 50 -1 18 8 0.0000 4 135 765 2700 2205 producteur\001
4 1 1 50 -1 18 8 0.0000 4 90 1005 1395 2610 consommateur\001
